#VRML V2.0 utf8

NavigationInfo {
	type [ "EXAMINE", "ANY" ]
}
Transform {
  scale 0.001 0.001 0.001 # mm -> m
  translation 0 0 0
  children
  [
    Shape {
        appearance Appearance {
            material Material { }
        }
        geometry Cylinder {
            height 60
            radius 20
        }
    }
  ]
}
